<svg height="512pt" viewBox="-87 0 512 512.0002" width="512pt" xmlns="http://www.w3.org/2000/svg" style="fill: blue;">
	<path d="m0 115.085938v366.300781c0 16.878906 13.734375 30.613281 30.617188 30.613281h276.105468c16.882813 0 30.617188-13.734375 30.617188-30.613281v-366.300781c0-16.875-13.722656-30.605469-30.597656-30.613282h-276.148438c-16.871094.007813-30.59375 13.738282-30.59375 30.613282zm233.402344 313.550781h-129.464844c-8.671875 0-15.699219-7.027344-15.699219-15.699219 0-8.667969 7.027344-15.699219 15.699219-15.699219h129.460938c8.671874 0 15.703124 7.03125 15.703124 15.699219 0 8.671875-7.03125 15.699219-15.699218 15.699219zm-64.734375-260.804688c55.089843 0 99.90625 44.816407 99.90625 99.902344 0 55.089844-44.816407 99.90625-99.90625 99.90625-55.085938 0-99.902344-44.816406-99.902344-99.90625 0-55.085937 44.816406-99.902344 99.902344-99.902344zm0 0"/>
	<path d="m207.949219 323.8125c13.539062-9.511719 23.484375-23.785156 27.390625-40.375h-20.804688c-.9375 14.632812-3.183594 28.425781-6.585937 40.375zm0 0"/>
	<path d="m235.339844 252.035156c-3.90625-16.585937-13.851563-30.863281-27.390625-40.375 3.402343 11.949219 5.648437 25.742188 6.585937 40.375zm0 0"/>
	<path d="m168.667969 335.257812c4.621093-5.09375 12.292969-22.707031 14.414062-51.820312h-28.828125c2.121094 29.113281 9.796875 46.726562 14.414063 51.820312zm0 0"/>
	<path d="m168.667969 200.214844c-4.617188 5.097656-12.292969 22.707031-14.414063 51.820312h28.828125c-2.121093-29.113281-9.792969-46.722656-14.414062-51.820312zm0 0"/>
	<path d="m102 283.4375c3.90625 16.585938 13.851562 30.863281 27.390625 40.371094-3.402344-11.949219-5.648437-25.738282-6.585937-40.371094zm0 0"/>
	<path d="m129.386719 211.664062c-13.535157 9.511719-23.480469 23.785157-27.386719 40.375h20.800781c.941407-14.632812 3.1875-28.429687 6.585938-40.375zm0 0"/>
	<path d="m294.242188 39.132812c0-12.40625-5.847657-23.796874-16.042969-31.253906-10.53125-7.699218-24.296875-9.917968-36.816407-5.933594-.144531.042969-.285156.089844-.425781.140626l-145.710937 50.984374h198.996094zm0 0"/>
</svg>